# MagicaVoxel @ Ephtracy

# group
o 

# material
mtllib SuperHumano-6.mtl
usemtl palette

# normals
vn -1 0 0
vn 1 0 0
vn 0 0 1
vn 0 0 -1
vn 0 -1 0
vn 0 1 0

# texcoords
vt 0.974609 0.5

# verts
v -0.6 2 1.5
v -0.6 2 1.1
v -0.6 2.5 1.5
v -0.6 2.5 1.1
v -0.3 2.2 1.6
v -0.3 2.2 1.5
v -0.3 2.4 1.6
v -0.3 2.4 1.5
v -0.1 2.5 1.5
v -0.1 2.5 1.1
v -0.1 2.6 1.5
v -0.1 2.6 1.1
v -5.96046e-08 2.1 1.6
v -5.96046e-08 2.1 1.5
v -5.96046e-08 2.2 1.6
v -5.96046e-08 2.2 1.5
v 0.1 2.4 1.6
v 0.1 2.4 1.5
v 0.1 2.5 1.6
v 0.1 2.5 1.5
v 0.4 2.4 1.6
v 0.4 2.4 1.5
v 0.4 2.5 1.6
v 0.4 2.5 1.5
v 0.5 2.1 1.6
v 0.5 2.1 1.5
v 0.5 2.4 1.6
v 0.5 2.4 1.5
v 0.6 2 1.5
v 0.6 2 1.1
v 0.6 2.6 1.5
v 0.6 2.6 1.1
v -0.3 2.2 1.6
v -0.3 2.4 1.6
v -5.96046e-08 2.1 1.6
v -5.96046e-08 2.2 1.6
v 0.1 2.4 1.6
v 0.1 2.5 1.6
v 0.4 2.4 1.6
v 0.4 2.5 1.6
v 0.5 2.1 1.6
v 0.5 2.4 1.6
v -0.6 2 1.5
v -0.6 2.5 1.5
v -0.3 2.2 1.5
v -0.3 2.4 1.5
v -0.1 2.5 1.5
v -0.1 2.6 1.5
v -5.96046e-08 2.1 1.5
v -5.96046e-08 2.2 1.5
v 0.1 2.4 1.5
v 0.1 2.5 1.5
v 0.4 2.4 1.5
v 0.4 2.5 1.5
v 0.5 2.1 1.5
v 0.5 2.4 1.5
v 0.6 2 1.5
v 0.6 2.6 1.5
v -0.6 2 1.1
v -0.6 2.5 1.1
v -0.1 2.5 1.1
v -0.1 2.6 1.1
v 0.6 2 1.1
v 0.6 2.6 1.1
v -0.6 2 1.5
v 0.6 2 1.5
v -0.6 2 1.1
v 0.6 2 1.1
v -5.96046e-08 2.1 1.6
v 0.5 2.1 1.6
v -5.96046e-08 2.1 1.5
v 0.5 2.1 1.5
v -0.3 2.2 1.6
v -5.96046e-08 2.2 1.6
v -0.3 2.2 1.5
v -5.96046e-08 2.2 1.5
v -0.3 2.4 1.6
v 0.1 2.4 1.6
v 0.4 2.4 1.6
v 0.5 2.4 1.6
v -0.3 2.4 1.5
v 0.1 2.4 1.5
v 0.4 2.4 1.5
v 0.5 2.4 1.5
v 0.1 2.5 1.6
v 0.4 2.5 1.6
v -0.6 2.5 1.5
v -0.1 2.5 1.5
v 0.1 2.5 1.5
v 0.4 2.5 1.5
v -0.6 2.5 1.1
v -0.1 2.5 1.1
v -0.1 2.6 1.5
v 0.6 2.6 1.5
v -0.1 2.6 1.1
v 0.6 2.6 1.1

# faces
f 3/1/1 2/1/1 1/1/1
f 4/1/1 2/1/1 3/1/1
f 7/1/1 6/1/1 5/1/1
f 8/1/1 6/1/1 7/1/1
f 11/1/1 10/1/1 9/1/1
f 12/1/1 10/1/1 11/1/1
f 15/1/1 14/1/1 13/1/1
f 16/1/1 14/1/1 15/1/1
f 19/1/1 18/1/1 17/1/1
f 20/1/1 18/1/1 19/1/1
f 21/1/2 22/1/2 23/1/2
f 23/1/2 22/1/2 24/1/2
f 25/1/2 26/1/2 27/1/2
f 27/1/2 26/1/2 28/1/2
f 29/1/2 30/1/2 31/1/2
f 31/1/2 30/1/2 32/1/2
f 36/1/3 34/1/3 33/1/3
f 37/1/3 34/1/3 36/1/3
f 37/1/3 36/1/3 35/1/3
f 39/1/3 37/1/3 35/1/3
f 39/1/3 38/1/3 37/1/3
f 40/1/3 38/1/3 39/1/3
f 41/1/3 39/1/3 35/1/3
f 42/1/3 39/1/3 41/1/3
f 45/1/3 44/1/3 43/1/3
f 46/1/3 44/1/3 45/1/3
f 47/1/3 44/1/3 46/1/3
f 49/1/3 45/1/3 43/1/3
f 50/1/3 45/1/3 49/1/3
f 51/1/3 48/1/3 47/1/3
f 51/1/3 47/1/3 46/1/3
f 52/1/3 48/1/3 51/1/3
f 54/1/3 48/1/3 52/1/3
f 55/1/3 49/1/3 43/1/3
f 56/1/3 54/1/3 53/1/3
f 57/1/3 55/1/3 43/1/3
f 57/1/3 56/1/3 55/1/3
f 58/1/3 54/1/3 56/1/3
f 58/1/3 56/1/3 57/1/3
f 58/1/3 48/1/3 54/1/3
f 59/1/4 60/1/4 61/1/4
f 59/1/4 61/1/4 63/1/4
f 61/1/4 62/1/4 63/1/4
f 63/1/4 62/1/4 64/1/4
f 67/1/5 66/1/5 65/1/5
f 68/1/5 66/1/5 67/1/5
f 71/1/5 70/1/5 69/1/5
f 72/1/5 70/1/5 71/1/5
f 75/1/5 74/1/5 73/1/5
f 76/1/5 74/1/5 75/1/5
f 77/1/6 78/1/6 81/1/6
f 81/1/6 78/1/6 82/1/6
f 79/1/6 80/1/6 83/1/6
f 83/1/6 80/1/6 84/1/6
f 85/1/6 86/1/6 89/1/6
f 89/1/6 86/1/6 90/1/6
f 87/1/6 88/1/6 91/1/6
f 91/1/6 88/1/6 92/1/6
f 93/1/6 94/1/6 95/1/6
f 95/1/6 94/1/6 96/1/6
